D:\Onvif WS\gateway\src\main\java\com\psi\nusa\gateway\controllers\GatewayController.java
D:\Onvif WS\gateway\src\main\java\com\psi\nusa\gateway\configurations\SessionListener.java
D:\Onvif WS\gateway\src\main\java\com\psi\nusa\gateway\configurations\WebAppInitializer.java
